<svg xmlns="http://www.w3.org/2000/svg" width="400" height="400" viewBox="0 0 400 400">
    <defs>
        <linearGradient id="a" x1="47.285%" x2="48.085%" y1="78.379%" y2="57.265%">
            <stop offset=".205%" stop-color="#E48868" stop-opacity="0"/>
            <stop offset="100%" stop-color="#222E3A"/>
        </linearGradient>
        <linearGradient id="b" x1="59.609%" x2="45.107%" y1="98.723%" y2="9.41%">
            <stop offset=".205%" stop-color="#E48868" stop-opacity="0"/>
            <stop offset="100%" stop-color="#222E3A"/>
        </linearGradient>
        <linearGradient id="c" x1="57.167%" x2="35.971%" y1="105.121%" y2="-30.179%">
            <stop offset=".052%" stop-color="#E8EBF0" stop-opacity="0"/>
            <stop offset="24%" stop-color="#BEC7D5" stop-opacity=".24"/>
            <stop offset="59.4%" stop-color="#8797B0" stop-opacity=".594"/>
            <stop offset="85.79%" stop-color="#647899" stop-opacity=".858"/>
            <stop offset="100%" stop-color="#576D90"/>
        </linearGradient>
    </defs>
    <g fill="none" fill-rule="nonzero">
        <path fill="#E8EBF0" d="M399 199.446v1.738c-.109 6.626-.435 13.253-1.195 19.77-3.259 30.417-13.253 58.661-28.678 83.429-21.51 34.653-53.338 62.245-91.141 78.54-.218.108-.435.217-.652.217-9.886 4.237-20.205 7.713-30.851 10.211-2.716.652-5.54 1.304-8.365 1.847-12.492 2.498-25.42 3.802-38.672 3.802-17.816 0-34.98-2.281-51.383-6.735-17.598-4.671-34.218-11.732-49.644-20.749-.108 0-.217-.108-.326-.217-40.41-23.899-71.696-61.593-87.23-106.675-1.412-4.02-2.607-8.039-3.802-12.167a174.04 174.04 0 0 1-4.562-21.4C1.412 224.213.652 217.261.326 210.2.109 206.615 0 203.03 0 199.337.109 89.294 89.403 0 199.554 0 306.23 0 393.351 83.863 398.783 189.234c.108.978.108 1.956.108 2.933 0 2.39.109 4.78.109 7.279z"/>
        <path fill="#C7CEDA" d="M399 200.158v1.632c0 6.749-.435 13.28-1.088 19.81-7.832 73.145-55.042 134.426-119.983 162.29-.217.11-.435.218-.544.218-12.509 5.334-25.671 9.361-39.269 12.082-12.51 2.504-25.454 3.81-38.725 3.81-17.84 0-35.026-2.286-51.452-6.748-17.622-4.68-34.265-11.756-49.712-20.79-.109-.109-.217-.109-.326-.218-40.466-23.946-71.794-61.716-87.35-106.887-1.414-4.027-2.61-8.055-3.807-12.191a174.48 174.48 0 0 1-4.568-21.443C1.088 224.866.326 217.9 0 210.825 69.292 179.803 97.248 80.1 191.45 86.522c32.525 2.286 19.037-13.497 66.573 0 54.39 15.456 88.437 61.607 140.868 106.234.109 2.504.109 4.898.109 7.402z"/>
        <g transform="translate(194 117)">
            <path fill="#E8EBF0" d="M147.087 1.42H7.804C3.794 1.42.542 4.669.542 8.675V108.81c0 4.006 3.252 7.254 7.262 7.254h139.283c4.01 0 7.263-3.248 7.263-7.254V8.674c.108-4.006-3.252-7.253-7.263-7.253z"/>
            <g fill="#8F9DB4" opacity=".6">
                <path d="M91.517 38.58H63.118a2.682 2.682 0 0 0-2.71 2.707 2.682 2.682 0 0 0 2.71 2.706h28.399c1.517 0 2.71-1.19 2.71-2.706a2.682 2.682 0 0 0-2.71-2.707zM108.426 29.812H46.209a2.682 2.682 0 0 0-2.71 2.706 2.682 2.682 0 0 0 2.71 2.706h62.217c1.517 0 2.71-1.19 2.71-2.706a2.682 2.682 0 0 0-2.71-2.706z" opacity=".7"/>
            </g>
            <path fill="#8F9DB4" d="M154.458 7.903c0-3.573-2.927-6.496-6.503-6.496H7.045C3.47 1.407.542 4.33.542 7.903v6.495h153.916V7.903z"/>
            <ellipse cx="145.678" cy="8.119" fill="#C7CEDA" rx="3.469" ry="3.464"/>
            <ellipse cx="10.622" cy="8.119" fill="#FFF" rx="2.818" ry="2.815"/>
        </g>
        <path fill="#1F3C6A" d="M288.956 348.726c-.327 3.593-11.107 7.294-11.325 10.886a471.115 471.115 0 0 0-.327 24.603C253.348 394.448 226.888 400 199.23 400c-18.185 0-35.716-2.395-52.377-6.967-17.313-4.681-33.756-11.648-48.783-20.575 3.593-16.765 4.9-29.175 4.9-38.755 0-20.792-5.771-28.848-5.771-41.259 0-2.721.109-9.58.327-18.397.435-18.724 1.089-46.484 1.415-63.249.218-16.765-25.372-8.927-14.047-21.228 17.314-18.724 54.337-19.05 73.393-33.312 0 0-.218 1.742 1.633.762 3.594-1.85 7.405-3.81 11.325-6.096 9.147-5.225 29.074 1.198 36.043 7.294.11.109.218.218.327.218 12.631 10.56 49.001 17.09 61.415 26.67v.218c0 1.089-.218 6.968-.436 15.132-.327 9.58-.653 22.317-1.089 34.292-.218 6.314-.544 12.628-.87 18.506-.545 7.838-1.199 14.805-2.07 19.813-.218 1.524-.544 3.048-.762 4.681-.109.327-.109.762-.218 1.089-.109.653-.218 1.306-.218 1.96 0 .326-.109.652-.109.87-.108.871.11 1.85-.435 2.613-2.722 4.68 4.464 17.091 11.978 30.263 2.722 4.681 5.444 9.58 7.731 14.152 4.03 7.839 6.86 15.023 6.425 20.031z"/>
        <path fill="#E48868" d="M207.025 163.281c.758 9.763-7.8 20.719-22.75 20.719-5.092 0-12.025-.76-17.225-5.532-3.25-2.929-6.067-6.726-6.717-10.956 0-.326-.108-.543-.108-.868l-3.467-43.39-.216-3.037 4.225 3.688 46.366 23.214-.108 16.162z"/>
        <path fill="url(#a)" d="M49.183 11.39c-.108.976-3.466 15.512-5.741 25.491-1.192 5.316 2.275 4.773 2.275 4.773s-17.442-.325-18.525 10.522c-.434 3.797 1.408 5.858 1.083 11.716-5.092.108-12.025-.76-17.225-5.533-3.25-2.928-6.067-6.725-6.717-10.956 0-.325-.108-.542-.108-.867L.758 3.146c1.3.217 2.6.434 4.009.65 17.875 2.712 44.416 6.51 44.416 7.594z" transform="translate(156 120)"/>
        <path fill="#1F3C6A" d="M338 291.053s-27.848 13.977-27.956 22.32c0 3.034-.325 9.643-.867 12.027l-9.536 1.842-16.362.541-5.2.217c-.326-.65.758-1.083.54-1.95a347.266 347.266 0 0 1-3.033-12.352c-1.084-4.984-2.276-9.968-3.25-14.41-.543-2.384-1.193-4.876-1.735-7.26-.108-.216-2.492-5.633-6.176-13.868-10.51-24.053-30.665-71.943-29.365-84.728 0-.433.108-.867.217-1.3 4.117-14.952 19.612-16.902 34.566-7.042a50.55 50.55 0 0 1 8.127 6.609c21.996 21.67 34.891 64.683 48.436 86.678 3.684 6.176 7.585 10.618 11.594 12.676zM112.472 230.162c-15.726 26.348-37.896 57.467-38.115 57.792-.983 2.277-2.075 4.554-3.058 6.83-3.385 7.808-7.645 17.783-11.14 25.156-.436.867.656 1.41.219 2.06l-21.187-4.662-1.638-.65c-2.294-3.145-4.478-6.29-6.553-9.542.11-2.06.218-4.12.437-5.422 1.42-8.132 3.713-13.987 3.713-13.987 1.966-5.638 25.993-82.296 54.06-101.596 25.01-17.131 37.132-8.132 38.77 10.084.437 5.421-6.443 18.866-15.508 33.937z"/>
        <path fill="#1E3351" d="M258 283.49l32.067 25.996a4.106 4.106 0 0 0 4.064 1.42c1.427 0 2.416-1.638 1.537-2.73-18.34-20.427-32.836-66.195-32.836-66.195-.769-1.638-3.295-1.092-3.404.656L258 265.357v18.132z" opacity=".72"/>
        <g fill="#E48868">
            <path d="M159.333 207.01s3.25-.55 4.659-3.08c1.408-2.64-1.3-5.28-3.359-5.61-2.491-.33-4.333.77-4.766 2.97-.434 1.87 1.191 3.41 2.383 3.85.542.22.867.66.975 1.32l.108.55z"/>
            <path d="M160.525 199.42s3.25-.55 4.658-3.08c1.409-2.64-1.3-5.28-3.358-5.61-2.492-.33-4.333.77-4.767 2.97-.433 1.87 1.192 3.41 2.384 3.85.541.22.866.66.975 1.32l.108.55z"/>
            <path d="M161.717 191.5s3.25-.55 4.658-3.08c1.408-2.64-1.3-5.28-3.358-5.61-2.492-.33-4.334.77-4.767 2.97-.433 1.87 1.192 3.41 2.383 3.85.542.22.867.66.975 1.32l.109.55z"/>
            <path d="M162.475 183.25s2.925-.44 4.225-2.75c1.3-2.31-1.083-4.73-3.033-5.06-2.167-.33-3.9.66-4.334 2.64-.325 1.65 1.084 3.08 2.167 3.52.433.22.758.66.867 1.21l.108.44z"/>
        </g>
        <path fill="#1E3351" d="M84 255l47.848-43.868C159.283 194.844 119.643 199.947 84 255zM174.195 374.296c-21.677-6.516-27.855-16.943-31.757-39.751-3.902-22.483-13.44-22.374-18.534-40.621-4.66-16.726-1.95-30.737 3.143-41.598-1.409-.652-10.405.652-11.705-.326-8.346 8.037-9.755 14.554-17.017 21.288-.217 8.797-.325 15.64-.325 18.355 0 12.382 5.744 20.42 5.744 41.164 0 9.558-1.192 21.94-4.877 38.665 15.066 8.907 31.323 15.858 48.557 20.528 42.812 0 28.071-1.738 27.096-7.386-.217-1.737 10.405-7.06-.325-10.318z" opacity=".72"/>
        <path fill="#1F3C6A" d="M127 252.618c-11.511 14.727-45.72 81.708-74.715 81.38H51.2c-4.67-5.235-9.122-10.69-13.249-16.363-2.28-3.163-4.452-6.327-6.516-9.6-.108-.218-.217-.436-.434-.545.217-1.527.434-3.164.869-4.8.108-.327 14.66 1.855 27.8-20.29l51.476-50.4-.109.982c-2.823 11.127 6.516 18.109 15.964 19.636z"/>
        <path fill="#1A62B7" d="M326 279l-4.115-.981s-27.178-73.145-52.84-84.046c-10.179-4.36-24.363-5.232-36.6-14.825C216.42 166.612 207 162.796 207 162.796s.541-1.744 1.408-4.796c12.56 10.574 48.726 17.114 61.07 26.707v.218a50.582 50.582 0 0 1 8.12 6.65C299.58 213.595 312.466 256.87 326 279z"/>
        <path fill="#E48868" d="M233.108 108.52c-.325-3.474.109-6.406.651-9.229v-.108c.542-2.823 1.193-5.537 1.518-8.903-3.253-2.063-6.18-4.451-8.783-7.491-5.096-6.08-7.807-13.138-8.133-20.303-1.084-.217-2.277-.217-3.361-.217l-38.06.76c-6.073.108-11.82 3.04-15.506 8.034-2.928 3.908-4.446 8.686-4.554 13.571v.76c.216 5.863.433 13.789.759 19.76.108 2.497.325 4.777.433 6.297.109.76.217 1.629.326 2.606.867 4.994 2.494 12.269 4.12 16.612.217.542.325.977.542 1.302 0 .109.109.218.109.218 2.06 4.668 15.831 27.468 35.458 31.051h.216s5.53 1.303 11.711-.977c2.386-.869 4.771-2.28 7.048-4.56 2.386-2.389 4.771-5.212 6.832-8.36 4.337-6.406 7.59-13.572 8.24-19.869.11-.76.11-1.411.11-2.063.108-7.057.324-12.16.324-15.742.109-1.195.109-2.28 0-3.149z"/>
        <path fill="url(#b)" d="M81.867 40.931l1.302 1.412-1.41 6.731v.109c-.542 2.823-.976 5.754-.65 9.228.108.869.108 1.955.108 3.149-2.169-.977-12.036-6.189-17.024-14.006-4.554-7.057-10.301-8.685-16.265-10.205-11.277-2.823-14.53-9.229-14.53-9.229l10.843.326s-.325-6.406 4.229-6.515c10.735-.542 19.626 7.492 19.626 7.492L81.867 40.93z" opacity=".55" transform="translate(152 50)"/>
        <path fill="#1F3C6A" d="M241.783 83.657c0-5.537-2.602-10.857-6.831-14.44-2.711-2.28-6.18-4.343-10.41-4.994-2.277-3.909-4.77-6.732-9.542-7.817-9.867-2.28-15.614-6.84-24.29-5.755-10.3 1.303-11.06 5.103-17.565 6.189-8.025 1.411-10.302 5.103-13.446 9.337-4.338 6.08-5.205 35.286-5.205 35.286 3.036 12.051-5.205 16.611-.542 23.56 2.82 4.234 8.783 5.428 8.783 5.428s.759-9.011-.76-12.811c-1.517-3.8 5.531-8.903 5.531-8.903 8.024-8.034 8.024-19.543 8.241-22.04.65-6.514 7.048-10.748 9.759-8.577 9.867 7.926 18.434 8.686 23.313 8.251 3.253-.325 6.506.543 9.217 2.389 3.145 2.171 5.964 3.691 8.675 4.451 6.18 2.172 15.072 1.303 15.072-9.554z"/>
        <path fill="#E48868" d="M167.072 109.931s-2.71-8.36-7.915-6.08c-2.711 1.195-2.928 5.972-.868 9.555.76 1.411 4.663 6.188 4.663 6.188l4.12-9.663z"/>
        <path fill="#1F3C6A" d="M223.133 113.623c0 1.194.759 2.063 1.734 2.063.868 0 1.519-1.086 1.519-2.172 0-.977-.543-1.737-1.193-1.954-.217-.109-.326-.109-.542-.109-.651 0-1.302.652-1.41 1.52-.108.109-.108.435-.108.652z"/>
        <path fill="#FFF" d="M219.229 145.217c.217-.217 0-.651-.325-.543-1.302.435-3.687.977-6.615 1.086-2.06.109-4.12-.109-6.072-.434l-3.795-.76c-.326-.109-.542.325-.217.543 0 0 1.843 1.52 2.71 2.062 1.952 1.303 4.121 2.172 6.507 2.063h.108c2.603-.108 4.988-1.303 6.94-3.257l.759-.76z"/>
        <path fill="#1F3C6A" d="M221.614 107.434c0 .977.76 1.846 1.627 1.955 1.084.108 2.71.434 4.446.868l1.301.326c1.518.434 3.036.76 4.337 1.194v-1.086-.542-.218c0-.325 0-.542-.108-.868v-.109c-1.193-.76-2.603-1.52-3.687-1.954-1.084-.434-2.928-.977-4.229-1.194-.65-.109-1.193-.217-1.518-.217h-.217c-.325 0-.867.108-1.3.542-.435.218-.652.652-.652 1.303z"/>
        <g transform="translate(132 80)">
            <path fill="#1AC1C1" d="M31.554 88.83l-8.24-3.796 1.517-3.47 2.711-5.858 8.241 3.688-2.602 5.748z"/>
            <path fill="#178A9E" d="M33.18 85.142c-2.927-.867-5.746-2.06-8.349-3.579l2.603-5.857 8.24 3.688-2.493 5.748z" opacity=".4"/>
            <path fill="#1AC1C1" d="M3.795 139.698c-.867-.433-1.626-.976-2.277-1.735-.434-.542-.759-1.085-.976-1.735-.542-1.519-.542-3.146.109-4.773l19.843-44.469.759-1.627c.542-1.084 1.843-1.627 2.928-1.084l7.265 3.253c1.084.543 1.626 1.844 1.084 2.929l-.759 1.627-19.843 44.47c-1.301 3.144-4.988 4.554-8.133 3.144z"/>
            <ellipse cx="47.819" cy="40.89" fill="#27E2D8" rx="40.229" ry="40.239"/>
            <ellipse cx="49.663" cy="41.975" fill="#1AC1C1" rx="40.229" ry="40.239"/>
            <g>
                <path fill="#FFF" d="M60.18 73.428c-17.24 6.508-36.433-1.518-43.915-18.221-.325-.65-.542-1.302-.867-1.952-6.832-18.005 2.168-38.07 20.06-44.795 6.723-2.603 13.77-2.928 20.277-1.41.217 0 .434.108.65.108.217.109.543.109.76.217a35.07 35.07 0 0 1 10.951 5.207c.109 0 .109.108.217.108.326.217.65.542.976.76 4.771 3.795 8.675 8.893 10.952 15.075a34.398 34.398 0 0 1 2.06 8.46c1.844 15.51-6.94 30.695-22.12 36.443z"/>
                <path fill="url(#c)" d="M26.892 17.137c14.421-5.423 30.47 1.301 36.759 15.076-.217-2.386-.868-4.772-1.735-7.05-5.747-14.968-22.446-22.56-37.41-16.811C9.542 13.992 1.952 30.803 7.699 45.77l.65 1.627c-1.41-12.799 5.964-25.38 18.543-30.261z" opacity=".42" transform="translate(13.012 5.423)"/>
            </g>
        </g>
        <path fill="#E48868" d="M166.392 170.868c-.97-.976-2.587-.326-3.233.325-3.45 3.58-7.113 18.982-11.532 16.161-1.509-.976-3.557-7.484-2.263-13.883l-.216.434.647-3.905c-.97 0-7.437 4.23-10.131 13.341-1.617 5.315-4.634 15.185-6.574 22.344-.97 3.363-2.695 6.508-5.281 9.003l-15.52 15.402S98.71 252 126.732 252l19.4-25.056 2.37-5.314h.324l2.91-2.495c.646-.542 1.185-1.085 1.832-1.627 4.957-4.773 7.652-13.884 9.807-20.5.539-1.736 5.281-23.971 3.018-26.14z"/>
        <ellipse cx="186.5" cy="124" fill="#1F3C6A" rx="9.5" ry="15"/>
        <path fill="#1F3C6A" d="M201 92.582c-.753 1.619-1.937 2.374-3.658 2.159-5.058-.648-9.9-1.295-13.666-1.187-14.85.647-20.767 6.474-21.52 5.287-1.292-2.05 5.487-10.467 19.368-12.625 1.937-.324 4.734-.216 6.671-.108.215.108.538.108.754.216a34.761 34.761 0 0 1 10.867 5.18c.108 0 .108.107.216.107.322.54.645.756.968.971z"/>
        <g transform="translate(137 268)">
            <path fill="#27E2D8" d="M236.742 8.182l-12.38 40.145c-16.072 22.473-36.706 41.346-60.489 55.528-.108 0-.217.109-.325.218-12.272 7.2-25.412 13.2-39.096 17.672h-94.37L65.483 6c.76-2.945 3.367-5.018 6.407-5.018h159.204c3.8-.11 6.516 3.49 5.647 7.2z"/>
            <path fill="#1AC1C1" d="M239.674 12.327l-7.493 24.11c-21.502 34.8-53.321 62.508-91.113 78.872-.217.11-.435.218-.652.218-9.882 4.255-20.199 7.746-30.841 10.255h-76.67L68.416 10.145c.652-2.945 3.367-5.018 6.408-5.018h159.203c3.801-.109 6.625 3.491 5.647 7.2z"/>
            <path fill="#1CB1B5" d="M124.344 121.636c-3.367 1.091-6.842 2.182-10.317 3.055-16.398 4.364-33.556 6.764-51.366 6.764-12.055 0-23.783-1.091-35.186-3.164-1.194-.218-2.389-.436-3.475-.655-2.932-.545-5.756-1.2-8.688-1.963.543-1.2.978-2.618.978-4.146l108.054.11z"/>
            <ellipse cx="142.224" cy="61.229" fill="#18A8A8" rx="10.249" ry="8.584" transform="rotate(-69.622 142.224 61.229)"/>
            <path fill="#1CB1B5" d="M29.973 121.636c0 2.619-.978 4.91-2.606 6.655-1.195-.218-2.39-.436-3.476-.655-2.932-.545-5.755-1.2-8.687-1.963-4.887-1.2-9.666-2.51-14.444-4.146l29.213.11z"/>
        </g>
    </g>
</svg>
